{
    "data": {
        "zh-cn": {
            "welcomebtn": "标题",
            "desc": "描述"
        },
        "en": {
            "welcomebtn": "Continue",
            "welcometxt": "General Manager：",
            "indexroom" : "Room:",
            "detailbtn": "Add to Cart",
            "detailtxt" : "DESCRIPTION",
            "detailquantity" : "QUANTITY",
            "detailrecommend" :"Recommended With:",
            "shoptitlecartlist":"Shopping Cart",
            "requestcartlist":"Whole order request:",
            "btncartlist":"Next",
            "totalamountcartlist":"Total Amount : ",
            "confirmcartconfirm":"Confirm Order",
            "confirmcartconfirm":"Confirm Order",
            "covercartconfirm":"Covers:",
            "itemcartconfirm":"Item Details",
            "qtycartconfirm":"QTY",
            "pricecartconfirm":"Price",
            "totalcartconfirm":"Total",
            "subtotalcartconfirm":"Subtotal",
            "totalamountcartconfirm":"Total Amount",
            "wholeordercartconfirm":"Whole order request:",
            "thankscartconfirm":"Thanks for your ordering !",
            "xuhuicartconfirm":"398 North Caoxi Road, Xuhui District, Shanghai, 200030",
            "servicecartconfirm":"Service Line: +86-21-5467 0205",
            "confirmbtncartconfirm":"Confirm Order",
            "paymentpaylist":"Payment Method",
            "alipaypaylist":"Alipay",
            "wechatpaylist":"WeChat",
            "couponspaylist":"Coupons",
            "cashpaylist":"Cash",
            "creditcardpaylist":"Credit Card",
            "roomfoliopaylist":"To Room Folio"
    	}
	}
}