{
    "ret": 200,
    "data": {
        "id": 9583,
        "lastEditTimestampUsec": 1514358285140389,
        "type": "STARTUP",
        "translates": {
            "zh-cn": {
                "startupTitle": "BUTLER",
                "startupProductDescription": "This is butler system"
            },
            "en": {
                "startupTitle": "BUTLER",
                "startupProductDescription": "This is butler system"
            }
        },
        "displayDevices": [
            "tablet"
        ],
        "startup": {
            "logo": {
                "internalImageId": 1548,
                "title": "loading_small logo"
            },
            "stayTimeSec": 5
        }
    },
    "msg": ""
}